%YAML 1.1
%TAG !u! tag:unity3d.com,2011:
--- !u!114 &11400000
MonoBehaviour:
  m_ObjectHideFlags: 0
  m_CorrespondingSourceObject: {fileID: 0}
  m_PrefabInstance: {fileID: 0}
  m_PrefabAsset: {fileID: 0}
  m_GameObject: {fileID: 0}
  m_Enabled: 1
  m_EditorHideFlags: 0
  m_Script: {fileID: 11500000, guid: 48773e2080fa47d41b153312524f62ed, type: 3}
  m_Name: PlayerData
  m_EditorClassIdentifier: 
  hp: 0
  str: 0
  spd: 6
  atkspd: 0
  karma: 0
  dashCharges: 2
  dashSpeed: 20
